{
	"info": {
		"_postman_id": "030d5ca6-4d7e-4a08-9745-5a80618f28cb",
		"name": "Infraccionar",
		"schema": "https://schema.getpostman.com/json/collection/v2.0.0/collection.json",
		"_exporter_id": "29550197"
	},
	"item": [
		{
			"name": "userdata",
			"request": {
				"method": "GET",
				"header": [],
				"url": "http://localhost:1000/data/userdata/1.00"
			},
			"response": []
		},
		{
			"name": "mydata",
			"request": {
				"method": "GET",
				"header": [],
				"url": "http://localhost:1000/data/mydata/21085228-k"
			},
			"response": []
		},
		{
			"name": "user",
			"request": {
				"method": "GET",
				"header": [],
				"url": "http://localhost:1000/user/correo1@example.com/24301"
			},
			"response": []
		},
		{
			"name": "generate",
			"request": {
				"method": "POST",
				"header": [
					{
						"key": "infraccion",
						"value": "{\"rut_infractor\": \"21085228-k\",\"motivo\": \"Falta de señalización\",\"ubicacion\": \"Calle Peatonal\",\"monto\": 90,\"estado\": \"Pendiente\",\"id_trabajador\": 1,\"patente\": \"XYZ789\",  \"fecha_infraccion\": \"15/09/2015\",\"tipo\": \"moderada\"}",
						"type": "text"
					}
				],
				"url": "http://localhost:1000/data/generator"
			},
			"response": []
		}
	]
}